<?xml version="1.0" encoding="UTF-8"?>
<svg width="10px" height="12px" viewBox="0 0 10 12" version="1.1" xmlns="http://www.w3.org/2000/svg" xmlns:xlink="http://www.w3.org/1999/xlink">
    <!-- Generator: Sketch 48.1 (47250) - http://www.bohemiancoding.com/sketch -->
    <title>beaker</title>
    <desc>Created with Sketch.</desc>
    <defs></defs>
    <g id="Keywords,-Discover-Opps" stroke="none" stroke-width="1" fill="none" fill-rule="evenodd" transform="translate(-846.000000, -37.000000)">
        <g id="beta" transform="translate(846.000000, 34.000000)" fill="#FFFFFF">
            <g id="beaker">
                <g id="noun_1318713_cc">
                    <g id="Group" fill-rule="nonzero">
                        <path d="M6.93548387,8.609375 C6.85483871,8.46875 6.80645161,8.3125 6.80645161,8.15625 L6.80645161,6.21875 C7.5,6.125 8.03225806,5.546875 8.03225806,4.859375 C8.03225806,4.109375 7.40322581,3.484375 6.61290323,3.484375 L3.38709677,3.484375 C2.61290323,3.484375 1.96774194,4.09375 1.96774194,4.859375 C1.96774194,5.546875 2.5,6.125 3.19354839,6.21875 L3.19354839,8.171875 C3.19354839,8.328125 3.14516129,8.484375 3.06451613,8.625 L0.322580645,12.953125 C0.064516129,13.375 0.0483870968,13.875 0.290322581,14.296875 C0.532258065,14.71875 0.983870968,14.96875 1.48387097,14.96875 L8.5,14.96875 C9,14.96875 9.4516129,14.71875 9.69354839,14.296875 C9.93548387,13.875 9.93548387,13.375 9.66129032,12.953125 L6.93548387,8.609375 Z M2.62903226,11.390625 L4.03225806,9.1875 C4.22580645,8.875 4.32258065,8.53125 4.32258065,8.171875 L4.32258065,5.671875 C4.32258065,5.375 4.06451613,5.125 3.75806452,5.125 L3.38709677,5.125 C3.22580645,5.125 3.09677419,5 3.09677419,4.84375 C3.09677419,4.6875 3.22580645,4.5625 3.38709677,4.5625 L6.61290323,4.5625 C6.77419355,4.5625 6.90322581,4.6875 6.90322581,4.84375 C6.90322581,5 6.77419355,5.125 6.61290323,5.125 L6.24193548,5.125 C5.93548387,5.125 5.67741935,5.375 5.67741935,5.671875 L5.67741935,8.15625 C5.67741935,8.515625 5.77419355,8.875 5.96774194,9.171875 L7.37096774,11.375 L2.62903226,11.375 L2.62903226,11.390625 Z" id="Shape"></path>
                    </g>
                </g>
            </g>
        </g>
    </g>
</svg>