<?xml version="1.0" encoding="utf-8"?>
<!-- Svg Vector Icons : http://www.onlinewebfonts.com/icon -->
<!DOCTYPE svg PUBLIC "-//W3C//DTD SVG 1.1//EN" "http://www.w3.org/Graphics/SVG/1.1/DTD/svg11.dtd">
<svg version="1.1" fill="#ffffff" xmlns="http://www.w3.org/2000/svg" xmlns:xlink="http://www.w3.org/1999/xlink" x="0px" y="0px" viewBox="0 0 1000 1000" enable-background="new 0 0 1000 1000" xml:space="preserve">
<metadata> Svg Vector Icons : http://www.onlinewebfonts.com/icon </metadata>
<g><path d="M460,943.7c0-25.7,21-46.5,47-46.5c26.1,0,47.1,20.7,47.1,46.5c0,25.6-21,46.3-47.1,46.3C481,990,460,969.4,460,943.7L460,943.7z M460,760.4c0-25.5,21-46.3,47-46.3c26.1,0,47.1,20.8,47.1,46.3c0,25.7-21,46.5-47.1,46.5C481,806.9,460,786.2,460,760.4L460,760.4z M460,577.3c0-25.7,21-46.5,47-46.5c26.1,0,47.1,20.8,47.1,46.5c0,25.5-21,46.4-47.1,46.4C481,623.7,460,602.8,460,577.3L460,577.3z M460,393.9c0-25.7,21-46.4,47-46.4c26.1,0,47.1,20.7,47.1,46.4s-21,46.5-47.2,46.5C481,440.4,460,419.6,460,393.9L460,393.9z M474.7,17.8l-293.4,289c-13.4,13.3-9.5,38.7,9,56.8c18.3,18,44.2,22.1,57.6,8.8L500,124.1l252.1,248.3c13.5,13.3,39.3,9.3,57.7-8.8c18.4-18.1,22.4-43.5,9-56.8l-293.5-289c-6.3-6.3-15.5-8.6-25.3-7.5C490.2,9.2,481,11.5,474.7,17.8L474.7,17.8z"/></g>
</svg>